<?xml version="1.0" encoding="utf-8"?>
<!-- Generator: Adobe Illustrator 16.0.3, SVG Export Plug-In . SVG Version: 6.00 Build 0)  -->
<!DOCTYPE svg PUBLIC "-//W3C//DTD SVG 1.1//EN" "http://www.w3.org/Graphics/SVG/1.1/DTD/svg11.dtd">
<svg version="1.1"
	 id="svg2" xmlns:dc="http://purl.org/dc/elements/1.1/" xmlns:cc="http://creativecommons.org/ns#" xmlns:rdf="http://www.w3.org/1999/02/22-rdf-syntax-ns#" xmlns:svg="http://www.w3.org/2000/svg" xmlns:sodipodi="http://sodipodi.sourceforge.net/DTD/sodipodi-0.dtd" xmlns:inkscape="http://www.inkscape.org/namespaces/inkscape" sodipodi:version="0.32" inkscape:version="0.46dev+devel" sodipodi:docbase="/home/peter/wikiplaatjes" sodipodi:docname="Labarum.svg" inkscape:output_extension="org.inkscape.output.svg.inkscape"
	 xmlns="http://www.w3.org/2000/svg" xmlns:xlink="http://www.w3.org/1999/xlink" x="0px" y="0px" width="547.105px"
	 height="656.079px" viewBox="0 0 547.105 656.079" enable-background="new 0 0 547.105 656.079" xml:space="preserve">
<filter  height="130%" id="dropshadow">
	<feGaussianBlur  in="SourceAlpha" stdDeviation="3"></feGaussianBlur>
	<!--  stdDeviation is how much to blur  -->
	<feOffset  dx="2" dy="2" result="offsetblur"></feOffset>
	<!--  how much to offset  -->
	<feMerge>
		<feMergeNode></feMergeNode>
		<!--  this contains the offset blurred image  -->
		<feMergeNode  in="SourceGraphic"></feMergeNode>
		<!--  this contains the element that the filter is applied to  -->
	</feMerge>
</filter>
<sodipodi:namedview  id="base" inkscape:zoom="0.6166368" pagecolor="#ffffff" bordercolor="#666666" borderopacity="1.0" objecttolerance="10.0" gridtolerance="10.0" guidetolerance="10.0" inkscape:cx="267.53441" inkscape:cy="361.55823" showgrid="false" inkscape:pageshadow="2" inkscape:window-width="1280" inkscape:pageopacity="0.0" inkscape:window-height="1003" inkscape:window-x="-4" inkscape:window-y="-4" inkscape:current-layer="svg2" inkscape:showpageshadow="false">
	</sodipodi:namedview>
<path id="text2329" fill="#FFFFFF" filter="url(#dropshadow)" d="M183.568,8.039v11.469h15.813c15.899,0,27.884,4.54,35.938,13.625
	c5.575,6.402,8.344,22.82,8.344,49.25v310.25l-87.656-71.188c-10.703-8.761-17.266-14.755-19.688-18
	c-2.42-3.245-3.625-6.593-3.625-10c0-3.407,1.536-6.404,4.594-9c3.823-3.407,8.639-5.777,14.5-7.157
	c5.861-1.378,17.996-2.149,36.344-2.313c1.043,0,10.344,0,10.344,0v-11.469H4.256v11.469c14.526,0.487,26.389,1.942,35.563,4.375
	c13.761,3.732,26.377,8.767,37.844,15.094c11.468,6.328,27.636,17.996,48.531,35.031l117.469,95.469v16.25l-111.719,90.75
	c-18.348,14.764-34.667,25.736-48.938,32.875s-29.294,12.813-45.094,17.031c-9.429,2.596-20.66,4.283-33.656,5.094v11.469h194.219
	v-11.469h-10.344c-19.367-0.486-32.495-2.438-39.375-5.844c-6.88-3.408-10.313-7.684-10.313-12.875c0-3.408,1.144-6.711,3.438-9.875
	s9.157-9.434,20.625-18.844l81.156-65.938v100.125c0,23.953-2.058,39.131-6.188,45.529c-7.64,11.564-20.336,17.346-38.094,17.346
	h-15.813v11.469h179.969v-11.469h-16.094c-15.899,0-27.778-4.539-35.625-13.625c-5.782-6.402-8.688-22.82-8.688-49.25V473.29
	l81.469,66.219c11.469,9.41,18.332,15.682,20.625,18.846c2.293,3.162,3.438,6.467,3.438,9.875c0,5.189-3.433,9.467-10.313,12.875
	c-6.88,3.404-20.008,5.355-39.375,5.844h-10.344v11.469H542.85v-11.469c-12.996-0.813-24.228-2.498-33.655-5.094
	c-15.801-4.221-30.823-9.895-45.095-17.031c-14.271-7.139-30.59-18.111-48.938-32.875l-112.031-91v-15.75l117.781-95.72
	c20.896-17.035,37.063-28.704,48.531-35.031c11.467-6.327,24.082-11.362,37.844-15.094c9.174-2.433,21.036-3.888,35.563-4.375
	v-11.469H348.631v11.469c0,0,9.301,0,10.344,0c18.349,0.163,30.482,0.934,36.345,2.313c5.859,1.38,10.677,3.75,14.5,7.157
	c3.058,2.596,4.594,5.593,4.594,9c0,3.407-1.205,6.755-3.625,10c-2.421,3.245-8.985,9.239-19.688,18l-87.969,71.468V231.352
	c13.422,2.891,26.011,5.055,37.781,6.5c11.77,1.446,22.726,2.188,32.844,2.188c41.298,0,73.264-10.743,95.875-32.219
	c22.61-21.475,33.906-49.347,33.906-83.625c0-25.191-7.445-46.997-22.313-65.375c-14.866-18.377-33.132-31.412-54.813-39.156
	S375.087,8.04,337.506,8.039H183.568z M343.725,33.133c17.346,0,32.81,3.851,46.438,11.594c13.628,7.744,24.16,19.411,31.594,35
	c7.435,15.59,11.156,32.485,11.156,50.656c0,26.431-7.785,47.94-23.375,64.563c-15.59,16.623-34.119,24.938-55.594,24.938
	c-5.988,0-13.223-0.498-21.688-1.531c-8.466-1.032-18.182-2.591-29.125-4.656V39.008C319.649,35.085,333.193,33.133,343.725,33.133z
	"/>
</svg>
